{
  "version": "1.0.0-*",

  "dependencies": {
    "DrJoey.Domain": "1.0.0-*",
    "Microsoft.EntityFrameworkCore.SqlServer": "1.0.0",
    "NETStandard.Library": "1.6.0",
    "Newtonsoft.Json": "9.0.1"
  },

  "frameworks": {
    "netstandard1.6": {
      "imports": "dnxcore50"
    }
  },

  "tools": {
    "Microsoft.EntityFrameworkCore.Tools": "1.0.0-preview2-final"
  }

}
